{
  "rabbit": {
    "host": "kangaroo-01.rmq.cloudamqp.com",
    "virthost": "epcsgfuz",
    "username": "epcsgfuz",
    "passwd": "BiuTZUOwVH1BDsY1VF7V5_kiPsiZAvAg"
  },
  "homework": {
    "queuename": "homework"
  }
}
